{"items":[{"user_id":"74c77f4c-0cf0-4d12-a8b8-3f3fca4ddd0e","likes_count":0,"standard_image_url":"https://scontent.cdninstagram.com/t51.2885-15/s640x640/sh0.08/e35/17493630_261948417598748_6996876508325216256_n.jpg","standard_image_height":354,"standard_image_width":640,"lowres_image_url":"https://scontent.cdninstagram.com/t51.2885-15/s320x320/e35/17493630_261948417598748_6996876508325216256_n.jpg","lowres_image_width":320,"lowres_image_height":177,"wishlisted_count":0,"created_time":1490334605,"caption_text":"thanks W* **gK.\ngive us your idea,U7can produce your dream.\n#U7jewelry#fashion#fashionjewelry#womenjewelry#fashionjewelrywholesale#18k#18kgoldplated#allahjewelry#allahring#womenrings#religiousjewelry#islandjewelry#buyershow","username":"u7jewelryofficial","avatar":"https://scontent.cdninstagram.com/t51.2885-19/s150x150/13734307_218905065177638_2099247676_a.jpg","user_link":"https://snapppt.com/u7jewelryofficial","white_label":false,"id":"04dce338-af87-4301-9216-7e3549258055","status":"approved","display_hotspots":true,"name":"thanks W* **gK.\ngive us your idea,U7can produce your dream.\n#U7jewelry#fashion#fashionjewelry#womenjewelry#fashionjewelrywholesale#18k#18kgoldplated#allahjewelry#allahring#womenrings#religiousjewelry#islandjewelry#buyershow","url":"https://snapppt.com/u7jewelryofficial/items/04dce338-af87-4301-9216-7e3549258055","repost_username":null,"repost_avatar":null,"repost":false,"hotspots":[{"id":"239b8456-21e1-4a01-85e0-a56931109b72","top_percent":"30","left_percent":"47","number":1,"item_id":"04dce338-af87-4301-9216-7e3549258055","title":"Gold Rings For Men Luxury Zirconia Allah Islamic Wedding Bands Ring","formatted_name":"Gold Rings For Men Luxury Zirconia Allah Islamic Wedding Bands Ring","hotspot_images":["https://cdn.shopify.com/s/files/1/0964/9808/products/R1136_1_171dd260-0f9f-49a5-8afc-aec2161e711c_1024x1024.jpg?v=1478079024","https://cdn.shopify.com/s/files/1/0964/9808/products/R1136_1_171dd260-0f9f-49a5-8afc-aec2161e711c.jpg?v=1478079024","https://cdn.shopify.com/s/files/1/0964/9808/products/IMG_7654_9ccad106-c72c-4779-a200-c2a078c8a969.jpg?v=1478079024","https://cdn.shopify.com/s/files/1/0964/9808/products/IMG_7658_9c29231b-4e78-4a0c-a21b-db0da1aca878.jpg?v=1478079024"],"image":"https://cdn.shopify.com/s/files/1/0964/9808/products/R1136_1_171dd260-0f9f-49a5-8afc-aec2161e711c_1024x1024.jpg?v=1478079024","currency":"USD","price":"11.49","visit_url":"https://snapppt.com/u7jewelryofficial/items/239b8456-21e1-4a01-85e0-a56931109b72/visit"}]},{"user_id":"74c77f4c-0cf0-4d12-a8b8-3f3fca4ddd0e","likes_count":0,"standard_image_url":"https://scontent.cdninstagram.com/t51.2885-15/e35/p320x320/17439243_1899306990280819_8959077857041055744_n.jpg","standard_image_height":400,"standard_image_width":320,"lowres_image_url":"https://scontent.cdninstagram.com/t51.2885-15/e35/p320x320/17439243_1899306990280819_8959077857041055744_n.jpg","lowres_image_width":320,"lowres_image_height":400,"wishlisted_count":0,"created_time":1490263813,"caption_text":"u7jewelryofficialhappy easter !!! order $9.99,enjoy buy 1,get 1 FREE.\r\n#U7jewelry#fashion#fashionjewelry#womenjewelry#fashionjewelrywholesale#18k#18kgoldplated#U7#ankh#crossjewelry\r\n#easter#cross#jesuspiece#necklace#egyptiannecklaces#buyershow","username":"u7jewelryofficial","avatar":"https://scontent.cdninstagram.com/t51.2885-19/s150x150/13734307_218905065177638_2099247676_a.jpg","user_link":"https://snapppt.com/u7jewelryofficial","white_label":false,"id":"aa720588-82b6-4c50-a435-be58136bc6b6","status":"approved","display_hotspots":true,"name":"u7jewelryofficialhappy easter !!! order $9.99,enjoy buy 1,get 1 FREE.\r\n#U7jewelry#fashion#fashionjewelry#womenjewelry#fashionjewelrywholesale#18k#18kgoldplated#U7#ankh#crossjewelry\r\n#easter#cross#jesuspiece#necklace#egyptiannecklaces#buyershow","url":"https://snapppt.com/u7jewelryofficial/items/aa720588-82b6-4c50-a435-be58136bc6b6","repost_username":null,"repost_avatar":null,"repost":false,"hotspots":[{"id":"713e4a09-bb4b-4db9-890d-ff51b6ae8dd7","top_percent":"30","left_percent":"47","number":1,"item_id":"aa720588-82b6-4c50-a435-be58136bc6b6","title":"18K Gold Plated Ankh Cross Necklace Egyptian Men Jewelry The Key of the Nile Vintage Pendant","formatted_name":"18 K Gold Plated Ankh Cross Necklace Egyptian Men Jewelry The Key Of The Nile Vintage Pendant","hotspot_images":["https://cdn.shopify.com/s/files/1/0964/9808/products/IMG_0864_1024x1024.jpg?v=1480927520","https://cdn.shopify.com/s/files/1/0964/9808/products/GP2124K_1.jpg?v=1480927492","https://cdn.shopify.com/s/files/1/0964/9808/products/IMG_0837.jpg?v=1480927499","https://cdn.shopify.com/s/files/1/0964/9808/products/IMG_0840.jpg?v=1480927505"],"image":"https://cdn.shopify.com/s/files/1/0964/9808/products/IMG_0864_1024x1024.jpg?v=1480927520","currency":"USD","price":"14.99","visit_url":"https://snapppt.com/u7jewelryofficial/items/713e4a09-bb4b-4db9-890d-ff51b6ae8dd7/visit"}]},{"user_id":"74c77f4c-0cf0-4d12-a8b8-3f3fca4ddd0e","likes_count":0,"standard_image_url":"https://scontent.cdninstagram.com/t51.2885-15/s480x480/e35/17438631_743540589148438_7584787694979383296_n.jpg","standard_image_height":480,"standard_image_width":480,"lowres_image_url":"https://scontent.cdninstagram.com/t51.2885-15/s320x320/e35/17438631_743540589148438_7584787694979383296_n.jpg","lowres_image_width":320,"lowres_image_height":320,"wishlisted_count":0,"created_time":1490250592,"caption_text":"happy easter !!! order $9.99,enjoy buy 1,get 1 FREE.\n#U7jewelry#fashion#fashionjewelry#womenjewelry#fashionjewelrywholesale#18k#18kgoldplated#U7#ankh#crossjewelry\n#easter#cross#jesuspiece#necklace#egyptiannecklaces","username":"u7jewelryofficial","avatar":"https://scontent.cdninstagram.com/t51.2885-19/s150x150/13734307_218905065177638_2099247676_a.jpg","user_link":"https://snapppt.com/u7jewelryofficial","white_label":false,"id":"755275be-19d0-4a50-afdb-c72c1b791248","status":"approved","display_hotspots":true,"name":"happy easter !!! order $9.99,enjoy buy 1,get 1 FREE.\n#U7jewelry#fashion#fashionjewelry#womenjewelry#fashionjewelrywholesale#18k#18kgoldplated#U7#ankh#crossjewelry\n#easter#cross#jesuspiece#necklace#egyptiannecklaces","url":"https://snapppt.com/u7jewelryofficial/items/755275be-19d0-4a50-afdb-c72c1b791248","repost_username":null,"repost_avatar":null,"repost":false,"hotspots":[{"id":"d9678017-62b0-45cf-96f7-9cf0de79b8a9","top_percent":"30","left_percent":"47","number":1,"item_id":"755275be-19d0-4a50-afdb-c72c1b791248","title":"18K Gold Plated Ankh Cross Necklace Egyptian Men Jewelry The Key of the Nile Vintage Pendant","formatted_name":"18 K Gold Plated Ankh Cross Necklace Egyptian Men Jewelry The Key Of The Nile Vintage Pendant","hotspot_images":["https://cdn.shopify.com/s/files/1/0964/9808/products/IMG_0864_1024x1024.jpg?v=1480927520","https://cdn.shopify.com/s/files/1/0964/9808/products/GP2124K_1.jpg?v=1480927492","https://cdn.shopify.com/s/files/1/0964/9808/products/IMG_0837.jpg?v=1480927499","https://cdn.shopify.com/s/files/1/0964/9808/products/IMG_0840.jpg?v=1480927505"],"image":"https://cdn.shopify.com/s/files/1/0964/9808/products/IMG_0864_1024x1024.jpg?v=1480927520","currency":"USD","price":"14.99","visit_url":"https://snapppt.com/u7jewelryofficial/items/d9678017-62b0-45cf-96f7-9cf0de79b8a9/visit"}]},{"user_id":"74c77f4c-0cf0-4d12-a8b8-3f3fca4ddd0e","likes_count":0,"standard_image_url":"https://scontent.cdninstagram.com/t51.2885-15/s640x640/sh0.08/e35/17332682_304629093286181_4963927251423854592_n.jpg","standard_image_height":640,"standard_image_width":640,"lowres_image_url":"https://scontent.cdninstagram.com/t51.2885-15/s320x320/e35/17332682_304629093286181_4963927251423854592_n.jpg","lowres_image_width":320,"lowres_image_height":320,"wishlisted_count":0,"created_time":1489456768,"caption_text":"gold chunky link bracelets :)\n#U7fashionjewelry#fashion#fashionjewelry#womenjewelry#fashionjewelrywholesale#18k#18kgoldplated#goldbracelets#zirconjewelry#AfricanJewelry#jewleryforblackskin#bracelets#goldplatedbracelets#linkbracelets#menjewelry#menbracelets#factorydirectsale#chainbracelets","username":"u7jewelryofficial","avatar":"https://scontent.cdninstagram.com/t51.2885-19/s150x150/13734307_218905065177638_2099247676_a.jpg","user_link":"https://snapppt.com/u7jewelryofficial","white_label":false,"id":"4c42f66d-be5d-4a9d-a5c2-eb06a50abf19","status":"approved","display_hotspots":true,"name":"gold chunky link bracelets :)\n#U7fashionjewelry#fashion#fashionjewelry#womenjewelry#fashionjewelrywholesale#18k#18kgoldplated#goldbracelets#zirconjewelry#AfricanJewelry#jewleryforblackskin#bracelets#goldplatedbracelets#linkbracelets#menjewelry#menbracelets#factorydirectsale#chainbracelets","url":"https://snapppt.com/u7jewelryofficial/items/4c42f66d-be5d-4a9d-a5c2-eb06a50abf19","repost_username":null,"repost_avatar":null,"repost":false,"hotspots":[{"id":"ad6b642e-8503-4deb-b527-7d2e5c20388d","top_percent":"50","left_percent":"47","number":2,"item_id":"4c42f66d-be5d-4a9d-a5c2-eb06a50abf19","title":"Arrow Cuff Bracelet Women/Men Platinum/18K Real Gold Plated Round Bracelet Bangle","formatted_name":"Arrow Cuff Bracelet Women/Men Platinum/18 K Real Gold Plated Round Bracelet Bangle","hotspot_images":["https://cdn.shopify.com/s/files/1/0964/9808/products/IMG_6125_1024x1024.jpg?v=1481685804","https://cdn.shopify.com/s/files/1/0964/9808/products/H375.jpg?v=1481685804","https://cdn.shopify.com/s/files/1/0964/9808/products/IMG_5991.jpg?v=1481685804","https://cdn.shopify.com/s/files/1/0964/9808/products/IMG_6125.jpg?v=1481685804"],"image":"https://cdn.shopify.com/s/files/1/0964/9808/products/IMG_6125_1024x1024.jpg?v=1481685804","currency":"USD","price":"8.99","visit_url":"https://snapppt.com/u7jewelryofficial/items/ad6b642e-8503-4deb-b527-7d2e5c20388d/visit"},{"id":"d2c95c3b-8ed9-4a9c-93b7-d4dd2855c103","top_percent":"30","left_percent":"47","number":1,"item_id":"4c42f66d-be5d-4a9d-a5c2-eb06a50abf19","title":"18K Real Gold/Platinum Plated Bracelet Punk Style Thick Chain Link Bracelet Men Jewelry","formatted_name":"18 K Real Gold/Platinum Plated Bracelet Punk Style Thick Chain Link Bracelet Men Jewelry","hotspot_images":["https://cdn.shopify.com/s/files/1/0964/9808/products/H450_2.jpg?v=1489050772","https://cdn.shopify.com/s/files/1/0964/9808/products/AC_7_2NRIYO_AA_67XGGJ.jpg?v=1489050772","https://cdn.shopify.com/s/files/1/0964/9808/products/IMG_2804.jpg?v=1489050772"],"image":"https://cdn.shopify.com/s/files/1/0964/9808/products/H450_2.jpg?v=1489050772","currency":"USD","price":"11.49","visit_url":"https://snapppt.com/u7jewelryofficial/items/d2c95c3b-8ed9-4a9c-93b7-d4dd2855c103/visit"}]},{"user_id":"74c77f4c-0cf0-4d12-a8b8-3f3fca4ddd0e","likes_count":0,"standard_image_url":"https://scontent.cdninstagram.com/t51.2885-15/s640x640/sh0.08/e35/17076116_601551200039334_8844897362657673216_n.jpg","standard_image_height":639,"standard_image_width":640,"lowres_image_url":"https://scontent.cdninstagram.com/t51.2885-15/s320x320/e35/17076116_601551200039334_8844897362657673216_n.jpg","lowres_image_width":320,"lowres_image_height":319,"wishlisted_count":0,"created_time":1488619074,"caption_text":"US symbol jewelry punk style\n#U7jewelry#fashion#fashionjewelry#menjewelry#fashionjewelrywholesale#18k#18kgoldplated#goldbracelets#zirconjewelry#statementjewelry#rebelstatues#pendantnecklace#goldnecklace##stainlesssteeljewelry#ussymbols#mengifts","username":"u7jewelryofficial","avatar":"https://scontent.cdninstagram.com/t51.2885-19/s150x150/13734307_218905065177638_2099247676_a.jpg","user_link":"https://snapppt.com/u7jewelryofficial","white_label":false,"id":"29095b2c-757a-42da-8160-dc441c9dc346","status":"approved","display_hotspots":true,"name":"US symbol jewelry punk style\n#U7jewelry#fashion#fashionjewelry#menjewelry#fashionjewelrywholesale#18k#18kgoldplated#goldbracelets#zirconjewelry#statementjewelry#rebelstatues#pendantnecklace#goldnecklace##stainlesssteeljewelry#ussymbols#mengifts","url":"https://snapppt.com/u7jewelryofficial/items/29095b2c-757a-42da-8160-dc441c9dc346","repost_username":null,"repost_avatar":null,"repost":false,"hotspots":[{"id":"8d8d0a97-c548-46b5-8fda-e356f52ac080","top_percent":"30","left_percent":"47","number":1,"item_id":"29095b2c-757a-42da-8160-dc441c9dc346","title":"American Rebel Statue Of Liberty Pendant Necklace Gold Plated Stainless Steel Men US Symbol Jewelry","formatted_name":"American Rebel Statue Of Liberty Pendant Necklace Gold Plated Stainless Steel Men Us Symbol Jewelry","hotspot_images":["https://cdn.shopify.com/s/files/1/0964/9808/products/IMG_3418_1024x1024.jpg?v=1486706065","https://cdn.shopify.com/s/files/1/0964/9808/products/GP1897_2.jpg?v=1486706059","https://cdn.shopify.com/s/files/1/0964/9808/products/IMG_3418.jpg?v=1486706065","https://cdn.shopify.com/s/files/1/0964/9808/products/IMG_3419.jpg?v=1486706071"],"image":"https://cdn.shopify.com/s/files/1/0964/9808/products/IMG_3418_1024x1024.jpg?v=1486706065","currency":"USD","price":"13.99","visit_url":"https://snapppt.com/u7jewelryofficial/items/8d8d0a97-c548-46b5-8fda-e356f52ac080/visit"}]},{"user_id":"74c77f4c-0cf0-4d12-a8b8-3f3fca4ddd0e","likes_count":61,"standard_image_url":"https://scontent.cdninstagram.com/t51.2885-15/sh0.08/e35/p640x640/17077380_406470769688797_5549456054078668800_n.jpg","standard_image_height":800,"standard_image_width":640,"lowres_image_url":"https://scontent.cdninstagram.com/t51.2885-15/e35/p320x320/17077380_406470769688797_5549456054078668800_n.jpg","lowres_image_width":320,"lowres_image_height":400,"wishlisted_count":0,"created_time":1488330593,"caption_text":"skull bracelets for sale!40% Off!\n#U7fashionjewelry#fashion#fashionjewelry#fashionjewelrywholesale#18k#18kgoldplated#goldbracelets#punkjewelry#skull#skullbracelets#leatherbracelets#menbracelets#mengifts","username":"u7jewelryofficial","avatar":"https://scontent.cdninstagram.com/t51.2885-19/s150x150/13734307_218905065177638_2099247676_a.jpg","user_link":"https://snapppt.com/u7jewelryofficial","white_label":false,"id":"88189220-7e73-4a84-a245-02079191c153","status":"approved","display_hotspots":true,"name":"skull bracelets for sale!40% Off!\n#U7fashionjewelry#fashion#fashionjewelry#fashionjewelrywholesale#18k#18kgoldplated#goldbracelets#punkjewelry#skull#skullbracelets#leatherbracelets#menbracelets#mengifts","url":"https://snapppt.com/u7jewelryofficial/items/88189220-7e73-4a84-a245-02079191c153","repost_username":null,"repost_avatar":null,"repost":false,"hotspots":[{"id":"e2080ce1-ec1f-41e6-9d57-4d27323c1d3b","top_percent":"30","left_percent":"47","number":1,"item_id":"88189220-7e73-4a84-a245-02079191c153","title":"Black Genuine Leather Skeleton Skull Charm Bracelet For Men Gift Magnet Punk Jewelry","formatted_name":"Black Genuine Leather Skeleton Skull Charm Bracelet For Men Gift Magnet Punk Jewelry","hotspot_images":["https://cdn.shopify.com/s/files/1/0964/9808/products/HTB1Xm7fKFXXXXXNXXXXq6xXFXXXL_1024x1024.jpg?v=1488157561","https://cdn.shopify.com/s/files/1/0964/9808/products/HTB1ovIfNFXXXXX9XXXXq6xXFXXXI.jpg?v=1488157551","https://cdn.shopify.com/s/files/1/0964/9808/products/HTB1iFLRKFXXXXcUXVXXq6xXFXXXC.jpg?v=1488157553","https://cdn.shopify.com/s/files/1/0964/9808/products/HTB1c7HVKFXXXXX2XVXXq6xXFXXXp.jpg?v=1488157555"],"image":"https://cdn.shopify.com/s/files/1/0964/9808/products/HTB1Xm7fKFXXXXXNXXXXq6xXFXXXL_1024x1024.jpg?v=1488157561","currency":"USD","price":"12.99","visit_url":"https://snapppt.com/u7jewelryofficial/items/e2080ce1-ec1f-41e6-9d57-4d27323c1d3b/visit"}]},{"user_id":"74c77f4c-0cf0-4d12-a8b8-3f3fca4ddd0e","likes_count":124,"standard_image_url":"https://scontent.cdninstagram.com/t51.2885-15/s640x640/sh0.08/e35/16585122_694084720753364_4718769023519555584_n.jpg","standard_image_height":640,"standard_image_width":640,"lowres_image_url":"https://scontent.cdninstagram.com/t51.2885-15/s320x320/e35/16585122_694084720753364_4718769023519555584_n.jpg","lowres_image_width":320,"lowres_image_height":320,"wishlisted_count":0,"created_time":1486999905,"caption_text":"big hoop earring! sales now ,pls visit www.u7jewelry.com !\n#U7fashionjewelry#fashion#fashionjewelry#womenjewelry#fashionjewelrywholesale#18k#18kgoldplated#goldearring#hoopearring#u7","username":"u7jewelryofficial","avatar":"https://scontent.cdninstagram.com/t51.2885-19/s150x150/13734307_218905065177638_2099247676_a.jpg","user_link":"https://snapppt.com/u7jewelryofficial","white_label":false,"id":"d92a0d7c-221d-480c-9652-9185ab0972d3","status":"approved","display_hotspots":true,"name":"big hoop earring! sales now ,pls visit www.u7jewelry.com !\n#U7fashionjewelry#fashion#fashionjewelry#womenjewelry#fashionjewelrywholesale#18k#18kgoldplated#goldearring#hoopearring#u7","url":"https://snapppt.com/u7jewelryofficial/items/d92a0d7c-221d-480c-9652-9185ab0972d3","repost_username":null,"repost_avatar":null,"repost":false,"hotspots":[{"id":"8b80e533-f38e-4d2c-982a-625577a9be48","top_percent":"30","left_percent":"47","number":1,"item_id":"d92a0d7c-221d-480c-9652-9185ab0972d3","title":"40mm/60mm/80mm Big Earrings Gold/Platinum Plated Round Large Size Hoop Earrings for Women","formatted_name":"40mm/60mm/80mm Big Earrings Gold/Platinum Plated Round Large Size Hoop Earrings For Women","hotspot_images":["https://cdn.shopify.com/s/files/1/0964/9808/products/IMG_4276_0b981c31-bc49-4ebd-99e2-9c58df876242_1024x1024.jpg?v=1488425996","https://cdn.shopify.com/s/files/1/0964/9808/products/E6391_1.jpg?v=1488425996","https://cdn.shopify.com/s/files/1/0964/9808/products/HTB1B4ibKVXXXXcjaXXXq6xXFXXXH_1d72a6cb-e855-4f73-ba1d-cf7df9b1a0e8.jpg?v=1488425996","https://cdn.shopify.com/s/files/1/0964/9808/products/HTB1AcerKVXXXXcvXpXXq6xXFXXXr.jpg?v=1488425996"],"image":"https://cdn.shopify.com/s/files/1/0964/9808/products/IMG_4276_0b981c31-bc49-4ebd-99e2-9c58df876242_1024x1024.jpg?v=1488425996","currency":"USD","price":"5.99","visit_url":"https://snapppt.com/u7jewelryofficial/items/8b80e533-f38e-4d2c-982a-625577a9be48/visit"}]},{"user_id":"74c77f4c-0cf0-4d12-a8b8-3f3fca4ddd0e","likes_count":107,"standard_image_url":"https://scontent.cdninstagram.com/t51.2885-15/s640x640/sh0.08/e35/16583722_649969501857257_1762872333120307200_n.jpg","standard_image_height":558,"standard_image_width":640,"lowres_image_url":"https://scontent.cdninstagram.com/t51.2885-15/s320x320/e35/16583722_649969501857257_1762872333120307200_n.jpg","lowres_image_width":320,"lowres_image_height":279,"wishlisted_count":0,"created_time":1486445983,"caption_text":"Happy to hear our give away winner share her adwards with us:) thanks for your support.to U7~\n#U7fashionjewelry#fashion#fashionjewelry#womenjewelry#fashionjewelrywholesale#18k#18kgoldplated#goldbracelets#zirconjewelry#statementjewelry#bracelets#buyershow","username":"u7jewelryofficial","avatar":"https://scontent.cdninstagram.com/t51.2885-19/s150x150/13734307_218905065177638_2099247676_a.jpg","user_link":"https://snapppt.com/u7jewelryofficial","white_label":false,"id":"f38940b5-6ebf-4d8f-9ad0-3a3cbbc2b74d","status":"approved","display_hotspots":false,"name":"Happy to hear our give away winner share her adwards with us:) thanks for your support.to U7~\n#U7fashionjewelry#fashion#fashionjewelry#womenjewelry#fashionjewelrywholesale#18k#18kgoldplated#goldbracelets#zirconjewelry#statementjewelry#bracelets#buyershow","url":"https://snapppt.com/u7jewelryofficial/items/f38940b5-6ebf-4d8f-9ad0-3a3cbbc2b74d","repost_username":null,"repost_avatar":null,"repost":false,"hotspots":[]},{"user_id":"74c77f4c-0cf0-4d12-a8b8-3f3fca4ddd0e","likes_count":113,"standard_image_url":"https://scontent.cdninstagram.com/t51.2885-15/s640x640/sh0.08/e35/15877184_585963458265209_9156589710628356096_n.jpg","standard_image_height":640,"standard_image_width":640,"lowres_image_url":"https://scontent.cdninstagram.com/t51.2885-15/s320x320/e35/15877184_585963458265209_9156589710628356096_n.jpg","lowres_image_width":320,"lowres_image_height":320,"wishlisted_count":0,"created_time":1484374411,"caption_text":"cross jewelry for punk men .\n#U7fashionjewelry#fashion#fashionjewelry#womenjewelry#fashionjewelrywholesale#18k#18kgoldplated#goldbracelets#zirconjewelry#statementjewelry#AfricanJewelry#religiousjewelry#goldjewelrydesign #jesuspiece#jesus","username":"u7jewelryofficial","avatar":"https://scontent.cdninstagram.com/t51.2885-19/s150x150/13734307_218905065177638_2099247676_a.jpg","user_link":"https://snapppt.com/u7jewelryofficial","white_label":false,"id":"a31f1f91-cf48-4e8c-be32-84527bdd207f","status":"approved","display_hotspots":true,"name":"cross jewelry for punk men .\n#U7fashionjewelry#fashion#fashionjewelry#womenjewelry#fashionjewelrywholesale#18k#18kgoldplated#goldbracelets#zirconjewelry#statementjewelry#AfricanJewelry#religiousjewelry#goldjewelrydesign #jesuspiece#jesus","url":"https://snapppt.com/u7jewelryofficial/items/a31f1f91-cf48-4e8c-be32-84527bdd207f","repost_username":null,"repost_avatar":null,"repost":false,"hotspots":[{"id":"92d45b66-a767-4e78-a2a4-d944eb11d779","top_percent":"30","left_percent":"47","number":1,"item_id":"a31f1f91-cf48-4e8c-be32-84527bdd207f","title":"Gold Plated Men Jewelry INRI Crucifix Jesus Piece 316L stainless steel Cross Pendant Necklace","formatted_name":"Gold Plated Men Jewelry Inri Crucifix Jesus Piece 316 L Stainless Steel Cross Pendant Necklace","hotspot_images":["https://cdn.shopify.com/s/files/1/0964/9808/products/HTB1lNppKXXXXXaqXpXXq6xXFXXX4_1024x1024.jpg?v=1482389402","https://cdn.shopify.com/s/files/1/0964/9808/products/HTB1K8IyNpXXXXXzXFXXq6xXFXXXv.jpg?v=1482389402","https://cdn.shopify.com/s/files/1/0964/9808/products/IMG_7955.jpg?v=1482389402","https://cdn.shopify.com/s/files/1/0964/9808/products/IMG_7960.jpg?v=1482389402"],"image":"https://cdn.shopify.com/s/files/1/0964/9808/products/HTB1lNppKXXXXXaqXpXXq6xXFXXX4_1024x1024.jpg?v=1482389402","currency":"USD","price":"13.99","visit_url":"https://snapppt.com/u7jewelryofficial/items/92d45b66-a767-4e78-a2a4-d944eb11d779/visit"}]},{"user_id":"74c77f4c-0cf0-4d12-a8b8-3f3fca4ddd0e","likes_count":114,"standard_image_url":"https://scontent.cdninstagram.com/t51.2885-15/s480x480/e35/15877598_1220565118024766_8277358275335290880_n.jpg","standard_image_height":480,"standard_image_width":480,"lowres_image_url":"https://scontent.cdninstagram.com/t51.2885-15/s320x320/e35/15877598_1220565118024766_8277358275335290880_n.jpg","lowres_image_width":320,"lowres_image_height":320,"wishlisted_count":0,"created_time":1483664764,"caption_text":"6MM wide cuban chain for men\n#U7jewelry#fashion#fashionjewelry#womenjewelry#fashionjewelrywholesale#18k#18kgoldplated#menjewelry#goldjewelry#goldchains#cubanchains #linkchains #menchains","username":"u7jewelryofficial","avatar":"https://scontent.cdninstagram.com/t51.2885-19/s150x150/13734307_218905065177638_2099247676_a.jpg","user_link":"https://snapppt.com/u7jewelryofficial","white_label":false,"id":"9b84dac9-0d44-4770-b062-a68bdfad7784","status":"approved","display_hotspots":true,"name":"6MM wide cuban chain for men\n#U7jewelry#fashion#fashionjewelry#womenjewelry#fashionjewelrywholesale#18k#18kgoldplated#menjewelry#goldjewelry#goldchains#cubanchains #linkchains #menchains","url":"https://snapppt.com/u7jewelryofficial/items/9b84dac9-0d44-4770-b062-a68bdfad7784","repost_username":null,"repost_avatar":null,"repost":false,"hotspots":[{"id":"faa837db-cd78-47c3-b7a5-53bcd752f38f","top_percent":"30","left_percent":"47","number":1,"item_id":"9b84dac9-0d44-4770-b062-a68bdfad7784","title":"18K Gold Plated Punk Chain Necklace Men Jewelry 6MM Long Cuban Link Chain Necklace","formatted_name":"18 K Gold Plated Punk Chain Necklace Men Jewelry 6 Mm Long Cuban Link Chain Necklace","hotspot_images":[],"image":"","currency":null,"price":null,"visit_url":"https://snapppt.com/u7jewelryofficial/items/faa837db-cd78-47c3-b7a5-53bcd752f38f/visit"}]},{"user_id":"74c77f4c-0cf0-4d12-a8b8-3f3fca4ddd0e","likes_count":98,"standard_image_url":"https://scontent.cdninstagram.com/t51.2885-15/s640x640/sh0.08/e35/15535280_1368503693180427_2292886175213420544_n.jpg","standard_image_height":640,"standard_image_width":640,"lowres_image_url":"https://scontent.cdninstagram.com/t51.2885-15/s320x320/e35/15535280_1368503693180427_2292886175213420544_n.jpg","lowres_image_width":320,"lowres_image_height":320,"wishlisted_count":0,"created_time":1482481083,"caption_text":"wow.beauty buyer ! right ?\n#U7jewelry#fashion#fashionjewelry#womenjewelry#fashionjewelrywholesale#18k#18kgoldplated#goldjewelryset#hoopearring#goldplatedjewelry#necklaceearringset#buyershow#roundpendants#goldhoopearrings","username":"u7jewelryofficial","avatar":"https://scontent.cdninstagram.com/t51.2885-19/s150x150/13734307_218905065177638_2099247676_a.jpg","user_link":"https://snapppt.com/u7jewelryofficial","white_label":false,"id":"1c846eca-7b29-4f31-b4cd-dbe88f2456d5","status":"approved","display_hotspots":true,"name":"wow.beauty buyer ! right ?\n#U7jewelry#fashion#fashionjewelry#womenjewelry#fashionjewelrywholesale#18k#18kgoldplated#goldjewelryset#hoopearring#goldplatedjewelry#necklaceearringset#buyershow#roundpendants#goldhoopearrings","url":"https://snapppt.com/u7jewelryofficial/items/1c846eca-7b29-4f31-b4cd-dbe88f2456d5","repost_username":null,"repost_avatar":null,"repost":false,"hotspots":[{"id":"d2179dcd-9d8b-4d81-aa80-d2d8aec60c0f","top_percent":"30","left_percent":"47","number":1,"item_id":"1c846eca-7b29-4f31-b4cd-dbe88f2456d5","title":"Hoop Earring Necklace Set Mix Platinum/18K Gold Plated For Women Jewelry Set","formatted_name":"Hoop Earring Necklace Set Mix Platinum/18 K Gold Plated For Women Jewelry Set","hotspot_images":["https://cdn.shopify.com/s/files/1/0964/9808/products/S544_2_1024x1024.jpg?v=1479177279","https://cdn.shopify.com/s/files/1/0964/9808/products/S544_2.jpg?v=1479177279","https://cdn.shopify.com/s/files/1/0964/9808/products/S544_7.jpg?v=1479177279","https://cdn.shopify.com/s/files/1/0964/9808/products/S544_4.jpg?v=1479177279"],"image":"https://cdn.shopify.com/s/files/1/0964/9808/products/S544_2_1024x1024.jpg?v=1479177279","currency":"USD","price":"14.99","visit_url":"https://snapppt.com/u7jewelryofficial/items/d2179dcd-9d8b-4d81-aa80-d2d8aec60c0f/visit"}]},{"user_id":"74c77f4c-0cf0-4d12-a8b8-3f3fca4ddd0e","likes_count":91,"standard_image_url":"https://scontent.cdninstagram.com/t51.2885-15/s640x640/sh0.08/e35/15338301_1512958988718872_4485521994057515008_n.jpg","standard_image_height":640,"standard_image_width":640,"lowres_image_url":"https://scontent.cdninstagram.com/t51.2885-15/s320x320/e35/15338301_1512958988718872_4485521994057515008_n.jpg","lowres_image_width":320,"lowres_image_height":320,"wishlisted_count":0,"created_time":1482250604,"caption_text":"US Flag Pendant\n#U7fashionjewelry#fashion#fashionjewelry#womenjewelry#fashionjewelrywholesale#18k#18kgoldplated#goldnecklace#usaflag","username":"u7jewelryofficial","avatar":"https://scontent.cdninstagram.com/t51.2885-19/s150x150/13734307_218905065177638_2099247676_a.jpg","user_link":"https://snapppt.com/u7jewelryofficial","white_label":false,"id":"626dd33a-da39-4791-9a42-f5a8ef68c06a","status":"approved","display_hotspots":true,"name":"US Flag Pendant\n#U7fashionjewelry#fashion#fashionjewelry#womenjewelry#fashionjewelrywholesale#18k#18kgoldplated#goldnecklace#usaflag","url":"https://snapppt.com/u7jewelryofficial/items/626dd33a-da39-4791-9a42-f5a8ef68c06a","repost_username":null,"repost_avatar":null,"repost":false,"hotspots":[{"id":"80a207bb-4ad1-44ae-85f7-8515e91a6b6c","top_percent":"30","left_percent":"47","number":1,"item_id":"626dd33a-da39-4791-9a42-f5a8ef68c06a","title":"Square/Heart Shape Stainless Steel American Flag Pendent Necklace USA Symbol Necklace Men Jewelry","formatted_name":"Square/Heart Shape Stainless Steel American Flag Pendent Necklace Usa Symbol Necklace Men Jewelry","hotspot_images":["https://cdn.shopify.com/s/files/1/0964/9808/products/HTB1OjUaPXXXXXaLXFXXq6xXFXXXf_1024x1024.jpg?v=1488340336","https://cdn.shopify.com/s/files/1/0964/9808/products/HTB1OjUaPXXXXXaLXFXXq6xXFXXXf.jpg?v=1488340336","https://cdn.shopify.com/s/files/1/0964/9808/products/HTB11ErMPXXXXXXFapXXq6xXFXXX6.jpg?v=1488340336","https://cdn.shopify.com/s/files/1/0964/9808/products/HTB1DNUcPXXXXXcPXpXXq6xXFXXXd.jpg?v=1488340336"],"image":"https://cdn.shopify.com/s/files/1/0964/9808/products/HTB1OjUaPXXXXXaLXFXXq6xXFXXXf_1024x1024.jpg?v=1488340336","currency":"USD","price":"11.99","visit_url":"https://snapppt.com/u7jewelryofficial/items/80a207bb-4ad1-44ae-85f7-8515e91a6b6c/visit"}]}],"meta":{"links":{"self":"https://api.snapppt.com/items?page%5Bnumber%5D=1\u0026page%5Bsize%5D=12\u0026profile=u7jewelryofficial","next":"https://api.snapppt.com/items?page%5Bnumber%5D=2\u0026page%5Bsize%5D=12\u0026profile=u7jewelryofficial","total_pages":10,"total_count":116}}}